Introduction to R
…
---
# Dataframes

We usually do analysis in R with dataframes (or some variant).

Dataframes are basically like spreadsheets: columns are variables, and rows are observations.

```r
gss_cat
```

```
## # A tibble: 21,483 x 9
##     year marital       age race  rincome      partyid       relig        denom        tvhours
##    <int> <fct>       <int> <fct> <fct>        <fct>         <fct>        <fct>          <int>
##  1  2000 Never marr…    26 White $8000 to 99… Ind,near rep  Protestant   Southern ba…      12
##  2  2000 Divorced       48 White $8000 to 99… Not str repu… Protestant   Baptist-dk …      NA
##  3  2000 Widowed        67 White Not applica… Independent   Protestant   No denomina…       2
##  4  2000 Never marr…    39 White Not applica… Ind,near rep  Orthodox-ch… Not applica…       4
##  5  2000 Divorced       25 White Not applica… Not str demo… None         Not applica…       1
##  6  2000 Married        25 White $20000 - 24… Strong democ… Protestant   Southern ba…      NA
##  7  2000 Never marr…    36 White $25000 or m… Not str repu… Christian    Not applica…       3
##  8  2000 Divorced       44 White $7000 to 79… Ind,near dem  Protestant   Lutheran-mo…      NA
##  9  2000 Married        44 White $25000 or m… Not str demo… Protestant   Other              0
## 10  2000 Married        47 White $25000 or m… Strong repub… Protestant   Southern ba…       3
## # … with 21,473 more rows
```
…
---
## tibbles are basically just pretty dataframes
.pull-left[

```r
as_tibble(gss_cat)[, 1:5]
```

```
# A tibble: 21,483 x 5
    year marital         age race  rincome       
   <int> <fct>         <int> <fct> <fct>         
 1  2000 Never married    26 White $8000 to 9999 
 2  2000 Divorced         48 White $8000 to 9999 
 3  2000 Widowed          67 White Not applicable
 4  2000 Never married    39 White Not applicable
 5  2000 Divorced         25 White Not applicable
 6  2000 Married          25 White $20000 - 24999
 7  2000 Never married    36 White $25000 or more
 8  2000 Divorced         44 White $7000 to 7999 
 9  2000 Married          44 White $25000 or more
10  2000 Married          47 White $25000 or more
# … with 21,473 more rows
```
…
We'll use some data from the [National Longitudinal Survey of Youth 1979](https://www.nlsinfo.org/content/cohorts/nlsy79), a cohort of American young adults aged 14-22 at enrollment in 1979. They continue to be followed to this day, and there is a wealth of publicly available data [online](https://www.nlsinfo.org/investigator/pages/login.jsp). I've downloaded the answers to a survey question about whether respondents wear glasses, a scale about their eyesight with glasses, whether they are black or white/hispanic, their sex, their family's income in 1979, and their age at the birth of their first child.
---
# Read in data

```r
nlsy <- read_csv("nlsy_cc.csv")
nlsy
```

```
## # A tibble: 1,205 x 14
##   H0012400 H0012500 H0022300 H0022500 R0000100 R0009100 R0173600 R0214700 R0214800 R0216400
##      <dbl>    <dbl>    <dbl>    <dbl>    <dbl>    <dbl>    <dbl>    <dbl>    <dbl>    <dbl>
## 1        0        1        5        7        3        3        5        3        2        1
## 2        1        2        6        7        6        1        1        3        1        1
## # … with 1,203 more rows, and 4 more variables: R0217900 <dbl>, R0402800 <dbl>,
## #   R7090700 <dbl>, T4120500 <dbl>
```
…
