Introduction to R
…
```r
nlsy$region_factor <- factor(nlsy$region)
```

#### We can make a new variable out of anything, not just factors

```r
nlsy$age_bir_cent <- nlsy$age_bir - mean(nlsy$age_bir)
nlsy$dataset <- "NLSY"
```

```
## # A tibble: 1,205 x 5
##   region region_factor age_bir age_bir_cent dataset
##    <dbl> <fct>           <dbl>        <dbl> <chr>
## 1      1 1                  19       -4.45  NLSY
## 2      1 1                  30        6.55  NLSY
## 3      1 1                  17       -6.45  NLSY
## 4      1 1                  31        7.55  NLSY
## 5      3 3                  19       -4.45  NLSY
## 6      1 1                  30        6.55  NLSY
## 7      1 1                  27        3.55  NLSY
## 8      1 1                  24        0.552 NLSY
## # … with 1,197 more rows
```
…
# Selecting the variables you want

### We've made approximately 1000 new variables!

You don't want to keep them all. You'll get confused, and when you go to summarize your data it will take pages.

Luckily there's an easy way to select the variables you want: `select()`!

```r
nlsy_subs <- `select`(nlsy, id, income, eyesight, sex, region)
nlsy_subs
```

```
## # A tibble: 1,205 x 5
##      id income eyesight   sex region
##   <dbl>  <dbl>    <dbl> <dbl>  <dbl>
## 1     3  22390        1     2      1
## 2     6  35000        2     1      1
## 3     8   7227        2     2      1
## 4    16  48000        3     2      1
## 5    18   4510        3     1      3
## 6    20  50000        2     2      1
## # … with 1,199 more rows
```
---

# `select()` syntax

- Like `mutate()`, the first argument is the dataset you want to select from
- Then you can just list the variables you want!
- Or you can list the variables you *don't* want, preceded by a minus sign (`-`)
- There are also a lot of "helpers"!

```r
select(nlsy_subs, `-`id, `-`region)
```

```
## # A tibble: 1,205 x 3
##   income eyesight   sex
##    <dbl>    <dbl> <dbl>
## 1  22390        1     2
## 2  35000        2     1
## 3   7227        2     2
## 4  48000        3     2
## 5   4510        3     1
## 6  50000        2     2
## 7  20000        1     2
## 8  23900        1     2
## 9  23289        2     2
## # … with 1,196 more rows
```

---
# `one_of()`

Notice that the variable names we used in `select()` weren't in quotation marks.

Let's say you have a list of column names that you want. Then you can use `one_of()` to choose them.

```r
cols_I_want <- c("age_bir", "nsibs", "region")
select(nlsy, `one_of`(cols_I_want))
```

```
## # A tibble: 1,205 x 3
##   age_bir nsibs region
##     <dbl> <dbl>  <dbl>
## 1      19     3      1
## 2      30     1      1
## 3      17     7      1
## 4      31     3      1
## 5      19     2      3
## 6      30     2      1
## 7      27     1      1
## 8      24     6      1
## 9      21     1      1
## # … with 1,196 more rows
```

---
# Other select helpers

Do you have a lot of variables that are alike in some way? And you want to find all of them? Try:
- `starts_with()`
- `contains()`
- `ends_with()`

```r
select(nlsy, `starts_with`("slp"))
```

```
## # A tibble: 1,205 x 6
##   slp_cat_wkdy slp_cat_wkdy_ord slp_cat_wkdy_or… slp_cat_wkdy_out slp_cat_wkdy_co…
##   <fct>        <fct>            <fct>            <fct>            <fct>
## 1 some         some             some             some             less
## 2 some         some             some             some             less
## 3 ideal        ideal            ideal            ideal            more
## 4 some         some             some             some             less
## 5 lots         lots             lots             lots             more
## 6 ideal        ideal            ideal            ideal            more
## 7 ideal        ideal            ideal            ideal            more
## # … with 1,198 more rows, and 1 more variable: slp_cat_wkdy_lump <fct>
```

---
# Reordering variables

Sometimes you don't want to get rid of the other variables, you just want to move things around. Then use `everything()` as the last argument in `select()` to get all the rest.

Let's move `id` to be the first column:

```r
select(nlsy, id, `everything()`)
```

```
## # A tibble: 1,205 x 25
##      id glasses eyesight sleep_wkdy sleep_wknd nsibs  samp race_eth   sex region income
##   <dbl>   <dbl>    <dbl>      <dbl>      <dbl> <dbl> <dbl>    <dbl> <dbl>  <dbl>  <dbl>
## 1     3       0        1          5          7     3     5        3     2      1  22390
## 2     6       1        2          6          7     1     1        3     1      1  35000
## 3     8       0        2          7          9     7     6        3     2      1   7227
## 4    16       1        3          6          7     3     5        3     2      1  48000
## 5    18       0        3         10         10     2     1        3     1      3   4510
## 6    20       1        2          7          8     2     5        3     2      1  50000
## # … with 1,199 more rows, and 14 more variables: res_1980 <dbl>, res_2002 <dbl>,
## #   age_bir <dbl>, region_factor <fct>, age_bir_cent <dbl>, dataset <chr>,
## #   slp_cat_wkdy <fct>, total_sleep <dbl>, slp_cat_wkdy_ord <fct>, slp_cat_wkdy_ord2 <fct>,
## #   region_fact <fct>, slp_cat_wkdy_out <fct>, slp_cat_wkdy_comb <fct>,
## #   slp_cat_wkdy_lump <fct>
```
…
