Introduction to R
…
### Day 1: Figures ✅

### Day 2: Selecting, filtering, and mutating

```r
nlsy2 <- mutate(nlsy, only = case_when(
                              nsibs == 0 ~ "yes",
                              TRUE ~ "no"))
nlsy3 <- select(nlsy2, id, contains("sleep"), only)
only_kids <- filter(nlsy3, only == "yes")
only_kids
```

```
## # A tibble: 30 x 4
##      id sleep_wkdy sleep_wknd only 
##   <dbl>      <dbl>      <dbl> <chr>
## 1   458          7          8 yes  
## 2   653          6          7 yes  
## 3  1101          7          8 yes  
## 4  1166          5          6 yes  
## # … with 26 more rows
```
…
```r
nlsy2 <- mutate(nlsy, only = case_when(
  nsibs == 0 ~ "yes",
  TRUE ~ "no"))
nlsy3 <- select(nlsy2, 
   id, contains("sleep"), only)
only_kids <- filter(nlsy3, only == "yes")
only_kids
```

```
## # A tibble: 30 x 4
##       id sleep_wkdy sleep_wknd only 
##    <dbl>      <dbl>      <dbl> <chr>
##  1   458          7          8 yes  
##  2   653          6          7 yes  
##  3  1101          7          8 yes  
##  4  1166          5          6 yes  
##  5  2163          7          8 yes  
##  6  2442          7          9 yes  
##  7  2545          8          8 yes  
##  8  3036          5          8 yes  
##  9  3194          7          7 yes  
## 10  3538          5          5 yes  
## # … with 20 more rows
```
]
.pull-right[

```r
only_kids <- nlsy `%>%`
  mutate(only = case_when(
                     nsibs == 0 ~ "yes",
                     TRUE ~ "no")) `%>%`
  select(id, contains("sleep"), only) `%>%`
  filter(only == "yes")
only_kids
```

```
## # A tibble: 30 x 4
##       id sleep_wkdy sleep_wknd only 
##    <dbl>      <dbl>      <dbl> <chr>
##  1   458          7          8 yes  
##  2   653          6          7 yes  
##  3  1101          7          8 yes  
##  4  1166          5          6 yes  
##  5  2163          7          8 yes  
##  6  2442          7          9 yes  
##  7  2545          8          8 yes  
##  8  3036          5          8 yes  
##  9  3194          7          7 yes  
## 10  3538          5          5 yes  
## # … with 20 more rows
```
…
---
# We can "group" tibbles using `group_by()`

We can tell it's "grouped" and how many groups there are by printing out the data.

The data itself won't look different, but we'll be able to perform grouped functions on it.

```r
nlsy_by_region <- group_by(nlsy, region)
nlsy_by_region
```

```
## # A tibble: 1,205 x 15
## # Groups:   region [4]
##   glasses eyesight sleep_wkdy sleep_wknd    id nsibs  samp race_eth   sex region income
##     <dbl>    <dbl>      <dbl>      <dbl> <dbl> <dbl> <dbl>    <dbl> <dbl>  <dbl>  <dbl>
## 1       0        1          5          7     3     3     5        3     2      1  22390
## 2       1        2          6          7     6     1     1        3     1      1  35000
## 3       0        2          7          9     8     7     6        3     2      1   7227
## 4       1        3          6          7    16     3     5        3     2      1  48000
## 5       0        3         10         10    18     2     1        3     1      3   4510
## 6       1        2          7          8    20     2     5        3     2      1  50000
## 7       0        1          8          8    27     1     5        3     2      1  20000
## 8       1        1          8          8    49     6     5        3     2      1  23900
## # … with 1,197 more rows, and 4 more variables: res_1980 <dbl>, res_2002 <dbl>,
## #   age_bir <dbl>, slp_cat_wkdy <chr>
```

---
# `group_by()`

Like the other functions we've seen, we can use pipes:

```r
nlsy %>%
  mutate(income_stand = (income - mean(income))/sd(income)) %>%
  select(id, region, income_stand, race_eth, sex) %>%
  group_by(race_eth)
```

```
## # A tibble: 1,205 x 5
## # Groups:   race_eth [3]
##      id region income_stand race_eth   sex
##   <dbl>  <dbl>        <dbl>    <dbl> <dbl>
## 1     3      1        0.533        3     2
## 2     6      1        1.48         3     1
## 3     8      1       -0.605        3     2
## 4    16      1        2.45         3     2
## 5    18      3       -0.809        3     1
## 6    20      1        2.60         3     2
## 7    27      1        0.353        3     2
## 8    49      1        0.646        3     2
## # … with 1,197 more rows
```
…
