Introduction to R
…
```
## # A tibble: 1,128 x 5
##      id   sex race_eth glasses eyesight
##   <dbl> <dbl>    <dbl>   <dbl>    <dbl>
## 1     3     2        3       0        1
## 2     6     1        3       1        2
## 3     8     2        3       0        2
## 4    16     2        3       1        3
## 5    18     1        3       0        3
## 6    20     2        3       1        2
## 7    27     2        3       0        1
## # … with 1,121 more rows
```
…
---
# What if we want to change the variable

There are more "official" ways to deal with this that are beyond the scope of this class, but there's usually a workaround to be able to write your variable name as a character string instead.

Consider that we can rename a variable using the `rename()` function, which can take variable names in quotes:

```r
nlsy %>%
  rename(eyeglasses = "glasses")
```

```
## # A tibble: 1,205 x 10
##   eyeglasses eyesight sleep_wkdy sleep_wknd    id nsibs  samp race_eth   sex region
##        <dbl>    <dbl>      <dbl>      <dbl> <dbl> <dbl> <dbl>    <dbl> <dbl>  <dbl>
## 1          0        1          5          7     3     3     5        3     2      1
## 2          1        2          6          7     6     1     1        3     1      1
## 3          0        2          7          9     8     7     6        3     2      1
## 4          1        3          6          7    16     3     5        3     2      1
## 5          0        3         10         10    18     2     1        3     1      3
## 6          1        2          7          8    20     2     5        3     2      1
## 7          0        1          8          8    27     1     5        3     2      1
## # … with 1,198 more rows
```
…
---
# Make multiple variables factors
.big-code[

```r
nlsy %>%
  `mutate_at`(vars(eyesight,
                 race_eth, sex),
            factor) %>%
  select(eyesight, race_eth, sex)
```
]

```
## # A tibble: 1,205 x 3
##   eyesight race_eth sex
##   <fct>    <fct>    <fct>
## 1 1        3        2
## 2 2        3        1
## 3 2        3        2
## 4 3        3        2
## 5 3        3        1
## 6 2        3        2
## # … with 1,199 more rows
```

---
# Rename all your variables
.big-code[

```r
nlsy %>%
  `rename_all`(toupper)
```
]

```
## # A tibble: 1,205 x 14
##    GLASSES EYESIGHT SLEEP_WKDY SLEEP_WKND    ID NSIBS  SAMP RACE_ETH   SEX REGION INCOME
##      <dbl>    <dbl>      <dbl>      <dbl> <dbl> <dbl> <dbl>    <dbl> <dbl>  <dbl>  <dbl>
##  1       0        1          5          7     3     3     5        3     2      1  22390
##  2       1        2          6          7     6     1     1        3     1      1  35000
##  3       0        2          7          9     8     7     6        3     2      1   7227
##  4       1        3          6          7    16     3     5        3     2      1  48000
##  5       0        3         10         10    18     2     1        3     1      3   4510
##  6       1        2          7          8    20     2     5        3     2      1  50000
##  7       0        1          8          8    27     1     5        3     2      1  20000
##  8       1        1          8          8    49     6     5        3     2      1  23900
##  9       1        2          7          8    57     1     5        3     2      1  23289
## 10       0        1          8          8    67     1     1        3     1      1  35000
## # … with 1,195 more rows, and 3 more variables: RES_1980 <dbl>, RES_2002 <dbl>,
## #   AGE_BIR <dbl>
```
…
